{
  "packages": [
    "packages/*"
  ],
  "npmClient": "yarn",
  "useWorkspaces": true,
  "command": {
    "publish": {
      "message": "chore(release): publish"
    }
  },
  "version": "independent"
}
